## Ignore lines containing "## "
%% BasicInformation
	Type		Scaling
	Scaling		1.0
	Basis		Sinc
	Grid		Atoms
	Radius		4.0
	Radius		4.0
	AbsoluteRadius		1
	GeometryFilename		xyz/benzene.xyz
	GeometryFormat		xyz
	SpinMultiplicity		1.0
	Centered		1
	OccupationMethod		ZeroTemp
	Polarize		0
	NumElectrons		30
	KineticMatrix		Finite_Difference
	DerivativesOrder		9
	ShallowCopyOrbitals		1
	ParallelGridAtoms		1
	%% Pseudopotential
		Pseudopotential		1 # 1: pseudopotential, 2: model potential, else: exact potential
		Format		upf # upf | hgh
		## UsingDoubleGrid Yes
		UsingDoubleGrid		No
		NonlocalRmax		2.0
		Nonlocalthreshold		0.000001
		PSFilePath		/home/khs/DATA/UPF/
		PSFileSuffix		.pbe-theos.UPF
	%% End
%% End
%% Guess
	InitialGuess		1
	InitialFilePath		/home/khs/DATA/UPF/
	InitialFileSuffix		.pbe-theos.UPF
	NumberOfEigenvalues		40
%% End
%% Scf
	IterateMaxCycle		50
	ConvergenceType		Density
	ConvergenceTolerance		0.0001
	EnergyDecomposition		0
	ComputeInitialEnergy		0
	NumberOfEigenvalues		60
	%% ExchangeCorrelation
		CalGradientUsingDensity		0
		XFunctional		101
		CFunctional		130
	%% End
	%% Diagonalize
		Solver		Pure
		EigenSolver		LOBPCG # LOBPCG | BlockKrylovSchur
		Tolerance		0.00000001
		Locking		0 # 0: false | else: true
		DiagonalizeMaxIter		10
	%% End
	%% Mixing
		MixingType		Potential
		MixingParameter		0.3
		MixingMethod		1
	%% End
	%% Output
		Orbitals		cube
		Prefix		pbe.gs/PBE
	%% End
%% End
